Match Cell Barcodes — find_barcode • FLAMES
…
#> UMI: NNNNNNNNNNNN
#> polyT: TTTTTTTTT
#> Setting known barcodes from /tmp/RtmpPaoHHK/file1e8c4ec43455/bc_allow.tsv
#> Number of known barcodes: 143
#> Processing file: /__w/_temp/Library/FLAMES/extdata/fastq/musc_rps24.fastq.gz
#> Searching for barcodes...
#> Number of reads processed: 393
#> Number of reads where at least one barcode was found: 368
#> Number of reads with exactly one barcode match: 364
#> Number of chimera reads: 1
#> All done!
#> Skipping TSO trimming...
#> $musc_rps24
#> $musc_rps24$reads_tb
#> # A tibble: 372 × 8
#>    Read  CellBarcode FlankEditDist BarcodeEditDist UMI   TooShort Outfile Sample
#>    <chr> <chr>               <int>           <int> <chr> <lgl>    <chr>   <chr> 
#>  1 5040… CGGGTCAGTA…             1               0 CCGG… FALSE    /tmp/R… musc_…
#>  2 d54e… CGGACTGAGT…             1               0 GGGA… FALSE    /tmp/R… musc_…
#>  3 94bf… CTGTGCTTCC…             1               2 TTCT… FALSE    /tmp/R… musc_…
#>  4 d644… GTCGTAATCC…             7               0 GGTA… FALSE    /tmp/R… musc_…
#>  5 055d… TTTATGCAGA…             1               0 ATTC… FALSE    /tmp/R… musc_…
#>  6 66cb… GTAACTGAGA…             2               0 TGAG… FALSE    /tmp/R… musc_…
#>  7 e427… CGAACATGTC…             2               0 ATAC… FALSE    /tmp/R… musc_…
#>  8 5f74… ACCGTAACAA…             3               1 CCTC… FALSE    /tmp/R… musc_…
#>  9 f164… GACTAACTCC…             3               1 GTTC… FALSE    /tmp/R… musc_…
#> 10 c7ae… CATCGAACAG…             2               1 TTAA… FALSE    /tmp/R… musc_…
#> # ℹ 362 more rows
…
